%YAML 1.1
%TAG !u! tag:unity3d.com,2011:
--- !u!114 &11400000
MonoBehaviour:
  m_ObjectHideFlags: 0
  m_CorrespondingSourceObject: {fileID: 0}
  m_PrefabInstance: {fileID: 0}
  m_PrefabAsset: {fileID: 0}
  m_GameObject: {fileID: 0}
  m_Enabled: 1
  m_EditorHideFlags: 0
  m_Script: {fileID: 11500000, guid: 0affb93bc8039d74880780cb828a3eea, type: 3}
  m_Name: AppData
  m_EditorClassIdentifier: 
  catalogies:
  - {fileID: 11400000, guid: 304d52cc29aa1514dae267f02552ed74, type: 2}
  - {fileID: 11400000, guid: afe03b90d36d34242b4c7f4e93ea9ad6, type: 2}
  - {fileID: 11400000, guid: 629e888df11d01149abde594c70180b3, type: 2}
